…
> ### Name: calculate.rulelist
> ### Title: 'calculate' metrics for a rulelist
> ### Aliases: calculate.rulelist
> 
> ### ** Examples
> 
> library("magrittr")
> model_c5  = C50::C5.0(Attrition ~., data = modeldata::attrition, rules = TRUE)
> tidy_c5   = tidy(model_c5) %>%
+             set_validation_data(modeldata::attrition, "Attrition") %>%
+             set_keys(NULL)
> 
> # calculate default metrics (classification)
> calculate(tidy_c5)
# A tidytable: 24 × 4
   rule_nbr cumulative_coverage cumulative_overlap cumulative_accuracy
      <int>               <dbl>              <dbl>               <dbl>
 1        1                  16                  0               1    
 2        2                 537                  0               0.944
 3        3                 545                  5               0.945
 4        4                 656                 89               0.941
 5        5                 664                 89               0.941
 6        6                 667                 94               0.942
 7        7                 681                 94               0.941
 8        8                 687                 94               0.942
 9        9                 699                 95               0.941
10       10                1425                633               0.900
# ℹ 14 more rows
…
----------------------------------------------> 
> output_1 = predict(tidy_c5, palmerpenguins::penguins)
> output_1 # different rules per 'keys' (`trial_nbr` here)
# A tidytable: 1,720 × 3
   row_nbr trial_nbr rule_nbr
     <int>     <int>    <int>
 1       1         1        2
 2       1         2        1
 3       1         3        1
 4       1         4        1
 5       1         5        2
 6       2         1        5
 7       2         2        1
 8       2         3        1
 9       2         4        1
10       2         5        2
# ℹ 1,710 more rows
> 
> output_2 = predict(tidy_c5, palmerpenguins::penguins, multiple = TRUE)
> output_2 # `rule_nbr` is a list-column of integer vectors
# A tidytable: 1,720 × 3
   row_nbr trial_nbr rule_nbr 
     <int>     <int> <list>   
 1       1         1 <int [2]>
 2       1         2 <int [2]>
 3       1         3 <int [2]>
 4       1         4 <int [2]>
 5       1         5 <int [1]>
 6       2         1 <int [1]>
 7       2         2 <int [2]>
 8       2         3 <int [2]>
 9       2         4 <int [2]>
10       2         5 <int [1]>
# ℹ 1,710 more rows
…
--------------------------------------------> 
> predict(tidy_c5_ruleset, palmerpenguins::penguins)
# A tidytable: 1,720 × 3
   row_nbr trial_nbr rule_nbr 
     <int>     <int> <list>   
 1       1         1 <int [2]>
 2       1         2 <int [2]>
 3       1         3 <int [2]>
 4       1         4 <int [2]>
 5       1         5 <int [1]>
 6       2         1 <int [1]>
 7       2         2 <int [2]>
 8       2         3 <int [2]>
 9       2         4 <int [2]>
10       2         5 <int [1]>
# ℹ 1,710 more rows
…
